"V1","V2"
"astral",507
"astral_40",1048
"astral_40_seq_blast_100",1047
"boneMarrowGeneExpr_spearmanDist",38
"chang_pathbased",300
"chang_spiral",312
"coli_find",420
"coli_need",105
"coli_state",190
"coli_time",511
"DS1",34
"fraenti_s3",5000
"fu_flame",240
"gionis_aggregation",788
"ppi_mips",1094
"sfld_1",232
"synthetic_cassini250",250
"synthetic_cuboid250",250
"synthetic_spirals250",250
"tcga",293
"twonorm_100d",200
"twonorm_50d",200
"veenman_r15",600
"zahn_compound",399
"gaussian2d20_2000_0-3",2000
"gaussian2d20_2000_0-45",2000
"gaussian2d20_2000_0-6",2000
"gaussian2d20_500_0-3",500
"gaussian2d20_500_0-45",500
"gaussian2d20_500_0-6",500
"gaussian2d2_2000_0-3",2000
"gaussian2d2_2000_0-45",2000
"gaussian2d2_2000_0-6",2000
"gaussian2d2_500_0-3",500
"gaussian2d2_500_0-45",500
"gaussian2d2_500_0-6",500
"gaussian2d5_2000_0-3",2000
"gaussian2d5_2000_0-45",2000
"gaussian2d5_2000_0-6",2000
"gaussian2d5_500_0-3",500
"gaussian2d5_500_0-45",500
"gaussian2d5_500_0-6",500
"hypercube2_0-2_2000",2000
"hypercube2_0-2_500",500
"hypercube2_0-4_2000",2000
"hypercube2_0-4_500",500
"hypercube2_0-6_2000",2000
"hypercube2_0-6_500",500
"hypercube3_0-2_2000",2000
"hypercube3_0-2_500",500
"hypercube3_0-4_2000",2000
"hypercube3_0-4_500",500
"hypercube3_0-6_2000",2000
"hypercube3_0-6_500",500
"hypercube4_0-2_2000",2000
"hypercube4_0-2_500",500
"hypercube4_0-4_2000",2000
"hypercube4_0-4_500",500
"hypercube4_0-6_2000",2000
"hypercube4_0-6_500",500
"ringnorm2_2000",2000
"ringnorm2_500",500
"ringnorm3_2000",2000
"ringnorm3_500",500
"ringnorm4_2000",2000
"ringnorm4_500",500
"qiujoe_new_s-0.5_k10_d2_dn0_sizes_false",500
"qiujoe_new_s-0.5_k10_d2_dn0_sizes_true",605
"qiujoe_new_s-0.5_k10_d2_dn2_sizes_false",500
"qiujoe_new_s-0.5_k10_d2_dn2_sizes_true",605
"qiujoe_new_s-0.5_k10_d2_dn5_sizes_false",500
"qiujoe_new_s-0.5_k10_d2_dn5_sizes_true",605
"qiujoe_new_s-0.5_k20_d2_dn0_sizes_false",500
"qiujoe_new_s-0.5_k20_d2_dn0_sizes_true",420
"qiujoe_new_s-0.5_k20_d2_dn2_sizes_false",500
"qiujoe_new_s-0.5_k20_d2_dn2_sizes_true",420
"qiujoe_new_s-0.5_k20_d2_dn5_sizes_false",500
"qiujoe_new_s-0.5_k20_d2_dn5_sizes_true",420
"qiujoe_new_s-0.5_k3_d2_dn0_sizes_false",501
"qiujoe_new_s-0.5_k3_d2_dn0_sizes_true",996
"qiujoe_new_s-0.5_k3_d2_dn2_sizes_false",501
"qiujoe_new_s-0.5_k3_d2_dn2_sizes_true",996
"qiujoe_new_s-0.5_k3_d2_dn5_sizes_false",501
"qiujoe_new_s-0.5_k3_d2_dn5_sizes_true",996
"qiujoe_new_s-0.95_k10_d2_dn0_sizes_false",500
"qiujoe_new_s-0.95_k10_d2_dn0_sizes_true",605
"qiujoe_new_s-0.95_k10_d2_dn2_sizes_false",500
"qiujoe_new_s-0.95_k10_d2_dn2_sizes_true",605
"qiujoe_new_s-0.95_k10_d2_dn5_sizes_false",500
"qiujoe_new_s-0.95_k10_d2_dn5_sizes_true",605
"qiujoe_new_s-0.95_k20_d2_dn0_sizes_false",500
"qiujoe_new_s-0.95_k20_d2_dn0_sizes_true",420
"qiujoe_new_s-0.95_k20_d2_dn2_sizes_false",500
"qiujoe_new_s-0.95_k20_d2_dn2_sizes_true",420
"qiujoe_new_s-0.95_k20_d2_dn5_sizes_false",500
"qiujoe_new_s-0.95_k20_d2_dn5_sizes_true",420
"qiujoe_new_s-0.95_k3_d2_dn0_sizes_false",501
"qiujoe_new_s-0.95_k3_d2_dn0_sizes_true",996
"qiujoe_new_s-0.95_k3_d2_dn2_sizes_false",501
"qiujoe_new_s-0.95_k3_d2_dn2_sizes_true",996
"qiujoe_new_s-0.95_k3_d2_dn5_sizes_false",501
"qiujoe_new_s-0.95_k3_d2_dn5_sizes_true",996
"qiujoe_new_s0.0_k10_d2_dn0_sizes_false",500
"qiujoe_new_s0.0_k10_d2_dn0_sizes_true",605
"qiujoe_new_s0.0_k10_d2_dn2_sizes_false",500
"qiujoe_new_s0.0_k10_d2_dn2_sizes_true",605
"qiujoe_new_s0.0_k10_d2_dn5_sizes_false",500
"qiujoe_new_s0.0_k10_d2_dn5_sizes_true",605
"qiujoe_new_s0.0_k20_d2_dn0_sizes_false",500
"qiujoe_new_s0.0_k20_d2_dn0_sizes_true",420
"qiujoe_new_s0.0_k20_d2_dn2_sizes_false",500
"qiujoe_new_s0.0_k20_d2_dn2_sizes_true",420
"qiujoe_new_s0.0_k20_d2_dn5_sizes_false",500
"qiujoe_new_s0.0_k20_d2_dn5_sizes_true",420
"qiujoe_new_s0.0_k3_d2_dn0_sizes_false",501
"qiujoe_new_s0.0_k3_d2_dn0_sizes_true",996
"qiujoe_new_s0.0_k3_d2_dn2_sizes_false",501
"qiujoe_new_s0.0_k3_d2_dn2_sizes_true",996
"qiujoe_new_s0.0_k3_d2_dn5_sizes_false",501
"qiujoe_new_s0.0_k3_d2_dn5_sizes_true",996
"qiujoe_new_s0.4_k10_d2_dn0_sizes_false",500
"qiujoe_new_s0.4_k10_d2_dn0_sizes_true",605
"qiujoe_new_s0.4_k10_d2_dn2_sizes_false",500
"qiujoe_new_s0.4_k10_d2_dn2_sizes_true",605
"qiujoe_new_s0.4_k10_d2_dn5_sizes_false",500
"qiujoe_new_s0.4_k10_d2_dn5_sizes_true",605
"qiujoe_new_s0.4_k20_d2_dn0_sizes_false",500
"qiujoe_new_s0.4_k20_d2_dn0_sizes_true",420
"qiujoe_new_s0.4_k20_d2_dn2_sizes_false",500
"qiujoe_new_s0.4_k20_d2_dn2_sizes_true",420
"qiujoe_new_s0.4_k20_d2_dn5_sizes_false",500
"qiujoe_new_s0.4_k20_d2_dn5_sizes_true",420
"qiujoe_new_s0.4_k3_d2_dn0_sizes_false",501
"qiujoe_new_s0.4_k3_d2_dn0_sizes_true",996
"qiujoe_new_s0.4_k3_d2_dn2_sizes_false",501
"qiujoe_new_s0.4_k3_d2_dn2_sizes_true",996
"qiujoe_new_s0.4_k3_d2_dn5_sizes_false",501
"qiujoe_new_s0.4_k3_d2_dn5_sizes_true",996
hypercube_new_d3_sd0.2_n2000,2000
hypercube_new_d3_sd0.2_n500,500
hypercube_new_d3_sd0.4_n2000,2000
hypercube_new_d3_sd0.4_n500,500
hypercube_new_d3_sd0.6_n2000,2000
hypercube_new_d3_sd0.6_n500,500
hypercube_new_d4_sd0.2_n2000,2000
hypercube_new_d4_sd0.2_n500,500
hypercube_new_d4_sd0.4_n500,500
hypercube_new_d4_sd0.6_n2000,2000
hypercube_new_d4_sd0.6_n500,500
ringnorm_new_n2000_d3,2000
ringnorm_new_n2000_d4,2000
ringnorm_new_n500_d3,500
ringnorm_new_n500_d4,500
arcene_train,100
breastCancerWisconsin,569
BreastTissue,106
CardioTocoGraphy,2122
chronic_kidney_disease,203
dermatology,358
diabeticRetinopathy,1151
echocardiogram,61
ecoli,336
haberman,306
IndianLiverPatientDataset,578
MiceProteinExpression,972
parkinsons,195
pima-indians-diabetes,768
statlogHeart,270
vertebralColumn,310
yeast,1484